Model Response to Variables — pdp_sdm • caretSDM
…
get_pdp_sdm(i)
#> $naive_bayes
#> # A tibble: 132 × 4
#>    id     yhat variable value
#>    <chr> <dbl> <chr>    <dbl>
#>  1 m1.1  0.967 bio1      16.6
#>  2 m1.1  0.981 bio1      16.9
#>  3 m1.1  0.990 bio1      17.1
#>  4 m1.1  0.992 bio1      17.4
#>  5 m1.1  0.989 bio1      17.7
#>  6 m1.1  0.973 bio1      17.9
#>  7 m1.1  0.951 bio1      18.2
#>  8 m1.1  0.962 bio1      18.4
#>  9 m1.1  0.969 bio1      18.7
#> 10 m1.1  0.967 bio1      18.9
#> # ℹ 122 more rows
…
